sim/waves.vcd
$date
	Sun Mar  1 17:54:16 2026
$end
$version
	Icarus Verilog
$end
$timescale
	1ps
$end
$scope module tb_tap $end
$var wire 4 ! current_state [3:0] $end
$var reg 1 " tck $end
$var reg 1 # tms $end
$var reg 1 $ trst_n $end
$scope module dut $end
$var wire 1 " tck $end
$var wire 1 # tms $end
$var wire 1 $ trst_n $end
$var reg 4 % next_state [3:0] $end
$var reg 4 & state [3:0] $end
$upscope $end
$upscope $end
$enddefinitions $end
#0
$dumpvars
b0 &
b0 %
0$
1#
0"
b0 !
$end
#10000
1"
#20000
0"
#30000
1"
#40000
0"
#45000
1$
#50000
1"
#60000
0"
#70000
1"
#80000
0"
#90000
1"
#100000
0"
#110000
1"
#120000
0"
#130000
1"
#140000
0"
#150000
1"
#160000
0"
#170000
b1 %
0#
1"
#180000
0"
#190000
b1 !
b1 &
b10 %
1#
1"
#200000
0"
#210000
b10 !
b10 &
b11 %
0#
1"
#220000
0"
#230000
b0 %
b11 !
b11 &
1"
#240000
0"
#250000
b1 %
b0 !
b0 &
1"
#260000
0"
#270000
b1 !
b1 &
1"
#280000
0"
#290000
1"
#300000
0"
#310000
1"
#320000
0"
#330000
1"
#340000
0"
#350000
1"
#360000
0"
#370000
1"
#380000
0"
#390000
1"
#400000
0"
#410000
b10 %
1#
1"
#420000
0"
#430000
b1001 %
b10 !
b10 &
1"
#440000
0"
#450000
b1001 !
b1001 &
b0 %
0#
1"
#460000
0"
#470000
b1 %
b0 !
b0 &
1"
#480000
0"
#490000
b1 !
b1 &
1"
#500000
0"
#510000
1"
#520000
0"
#530000
1"
#540000
0"
#550000
1"
